[
  {
    "id": "eyx7",
    "text": "buy milk",
    "isCompleted": false
  },
  {
    "id": "ach9",
    "text": "clean the house",
    "isCompleted": false
  },
  {
    "id": "2ugq",
    "text": "buy coffee",
    "isCompleted": false
  },
  {
    "id": "ralu",
    "text": "order shoes",
    "isCompleted": true
  },
  {
    "id": "4wlm",
    "text": "buy clothes",
    "isCompleted": true
  },
  {
    "id": "ae7z",
    "text": "look for a house",
    "isCompleted": false
  },
  {
    "id": "nd7l",
    "text": "new task",
    "isCompleted": false
  },
  {
    "id": "um3m",
    "text": "test Utils.ts",
    "isCompleted": false
  }
]